GEOG 6000 Lab 08 Spatial Data in R
…
Attribute operations

The sf object is a data.frame, so working with attributes works just the same.

oregon_tann <- read_sf("../datafiles/oregon/oregontann.shp")

oregon_tann

## Simple feature collection with 92 features and 4 fields
## geometry type:  POINT
## dimension:      XY
## bbox:           xmin: -124.567 ymin: 42.05 xmax: -116.967 ymax: 46.15
## CRS:            NA
## # A tibble: 92 x 5
##    elevation  tann coords_x1 coords_x2          geometry
##        <int> <dbl>     <dbl>     <dbl>           <POINT>
##  1       846   9.6     -121.      44.9 (-120.717 44.917)
##  2        96  12.5     -120.      45.7   (-120.2 45.717)
##  3       543  11.1     -123.      42.2 (-122.717 42.217)
##  4         2  10.3     -124.      46.2  (-123.883 46.15)
##  5      1027   7.6     -118.      44.8 (-117.817 44.833)
##  6      1050   8.4     -118.      44.8 (-117.833 44.783)
##  7        24  10.8     -124.      43.1 (-124.383 43.117)
##  8      1097   7.7     -121.      44.1 (-121.317 44.067)
##  9       999   9.5     -118.      43.9 (-118.167 43.917)
## 10        18  11.2     -122.      45.6  (-121.95 45.633)
## # ... with 82 more rows
…
